<?xml version="1.0" encoding="UTF-8" standalone="no"?>
<svg
   xmlns:dc="http://purl.org/dc/elements/1.1/"
   xmlns:cc="http://creativecommons.org/ns#"
   xmlns:rdf="http://www.w3.org/1999/02/22-rdf-syntax-ns#"
   xmlns:svg="http://www.w3.org/2000/svg"
   xmlns="http://www.w3.org/2000/svg"
   xmlns:sodipodi="http://sodipodi.sourceforge.net/DTD/sodipodi-0.dtd"
   xmlns:inkscape="http://www.inkscape.org/namespaces/inkscape"
   width="64.055192mm"
   height="37.646800mm"
   version="1.1"
   viewBox="308.455170 50.763687 332.884583 195.644394"
   id="svg929"
   sodipodi:docname="Blockchain.svg"
   inkscape:version="0.92.3 (2405546, 2018-03-11)">
  <metadata
     id="metadata935">
    <rdf:RDF>
      <cc:Work
         rdf:about="">
        <dc:format>image/svg+xml</dc:format>
        <dc:type
           rdf:resource="http://purl.org/dc/dcmitype/StillImage" />
      </cc:Work>
    </rdf:RDF>
  </metadata>
  <defs
     id="defs933" />
  <sodipodi:namedview
     pagecolor="#ffffff"
     bordercolor="#666666"
     borderopacity="1"
     objecttolerance="10"
     gridtolerance="10"
     guidetolerance="10"
     inkscape:pageopacity="0"
     inkscape:pageshadow="2"
     inkscape:window-width="1533"
     inkscape:window-height="845"
     id="namedview931"
     showgrid="false"
     inkscape:zoom="2.8535647"
     inkscape:cx="39.27874"
     inkscape:cy="71.143561"
     inkscape:window-x="67"
     inkscape:window-y="27"
     inkscape:window-maximized="1"
     inkscape:current-layer="svg929" />
  <!--
	Exported with Concepts: Smarter Sketching
	Version: 616
	iOS Version: 11.4
	https://concepts.tophatch.com/
	-->
  <title
     id="title895">Ohne Titel 24</title>
  <desc
     id="desc897">Drawing exported from Concepts: Smarter Sketching</desc>
  <path
     style="opacity:1;fill:none;stroke:#171612;stroke-width:4;stroke-linecap:round;stroke-linejoin:round;stroke-opacity:1"
     inkscape:connector-curvature="0"
     d="m 358.58006,127.64681 q -0.266,-0.926 -0.563,-0.399 -0.297,0.528 -0.359,0.961 -0.063,0.434 -0.133,1.131 -0.07,0.697 -0.172,1.395 -0.101,0.697 -0.164,1.558 -0.062,0.861 -0.164,1.758 -0.102,0.896 -0.164,1.922 -0.062,1.025 -0.133,2.092 -0.07,1.066 -0.101,2.091 -0.032,1.026 -0.063,2.256 -0.031,1.231 -0.07,2.455 -0.039,1.225 -0.039,2.356 0,1.131 0,2.455 0,1.324 0,2.619 0,1.295 0,2.654 0,1.36 0,2.619 0,1.26 0,2.655 0,1.394 -0.032,2.625 -0.031,1.23 -0.031,2.256 0,1.025 -0.031,2.121 -0.031,1.095 -0.031,1.892 0,0.797 0,1.424 0,0.627 -0.031,1.295 -0.032,0.668 -0.071,1.494 -0.039,0.826 -0.101,1.822"
     id="STROKE_5B271F44-9003-4F2A-A12D-C1549110FEFE" />
  <path
     style="opacity:1;fill:none;stroke:#171612;stroke-width:4;stroke-linecap:round;stroke-linejoin:round;stroke-opacity:1"
     inkscape:connector-curvature="0"
     d="m 354.26706,123.13481 q -0.39,-1.254 -0.492,-1.652 -0.102,-0.399 -0.234,-0.832 -0.133,-0.434 -0.266,-1.166 -0.133,-0.733 -0.234,-1.43 -0.102,-0.697 -0.133,-1.36 -0.031,-0.662 -0.031,-1.125 0,-0.462 0.132,-0.96 0.133,-0.499 0.5,-0.733 0.368,-0.234 0.93,-0.234 0.563,0 1.094,0 0.531,0 1.164,0.334 0.633,0.334 1.062,0.597 0.43,0.264 0.829,0.534 0.398,0.269 0.796,0.597 0.399,0.328 0.797,0.627 0.399,0.299 0.86,0.598 0.461,0.299 0.859,0.597 0.399,0.299 0.797,0.563 0.398,0.264 0.828,0.562 0.43,0.299 0.859,0.598 0.43,0.299 0.797,0.598 0.368,0.299 0.766,0.597 0.398,0.299 0.766,0.569 0.367,0.269 0.695,0.568 0.328,0.299 0.726,0.627 0.399,0.328 0.735,0.692 0.336,0.363 0.633,0.761 0.297,0.399 0.562,0.797 0.266,0.399 0.563,1.096 0.296,0.697 0.398,1.23 0.102,0.534 0.102,0.996 0,0.463 -0.368,0.897 -0.367,0.433 -0.929,0.762 -0.563,0.328 -1.164,0.462 -0.602,0.135 -1.196,0.2 -0.593,0.064 -1.125,0.064 -0.531,0 -0.961,0 -0.429,0 -0.898,0 -0.469,0 0.195,0.27 0.664,0.269 1.399,0.732 0.734,0.463 1.133,0.727 0.398,0.263 0.859,0.597 0.461,0.334 0.93,0.698 0.468,0.363 1.062,0.861 0.594,0.498 1.063,0.896 0.468,0.399 1.031,0.862 0.562,0.463 1.055,0.926 0.492,0.462 1.125,1.031 0.632,0.568 1.101,0.996 0.469,0.428 1.063,1.025 0.593,0.598 1.023,1.061 0.43,0.463 0.898,1.095 0.469,0.633 0.899,1.295 0.43,0.663 0.758,1.395 0.328,0.732 0.593,1.394 0.266,0.663 0.5,1.459 0.235,0.797 0.368,1.594 0.132,0.797 0.164,1.524 0.031,0.726 0.031,1.658 0,0.931 0,1.857 0,0.926 -0.031,1.823 -0.032,0.896 -0.227,1.863 -0.195,0.967 -0.429,1.857 -0.235,0.891 -0.532,1.858 -0.297,0.966 -0.633,1.857 -0.335,0.891 -0.664,1.723 -0.328,0.832 -0.593,1.465 -0.266,0.632 -0.664,1.394 -0.399,0.762 -0.696,1.26 -0.297,0.498 -0.633,0.996 -0.335,0.498 -0.734,0.896 -0.398,0.399 -0.898,0.862 -0.5,0.463 -0.961,0.826 -0.461,0.363 -1.055,0.797 -0.594,0.433 -1.297,0.797 -0.703,0.363 -1.5,0.726 -0.797,0.364 -1.625,0.733 -0.828,0.369 -1.719,0.697 -0.89,0.328 -1.82,0.598 -0.93,0.269 -2.094,0.568 -1.164,0.299 -2.062,0.492 -0.899,0.194 -2.024,0.428 -1.125,0.234 -2.117,0.469 -0.992,0.234 -2.187,0.498 -1.196,0.263 -2.024,0.463 -0.828,0.199 -1.625,0.398 -0.797,0.199 -1.664,0.398 -0.867,0.2 -1.461,0.364 -0.594,0.164 -1.062,0.299 -0.469,0.134 -0.899,0.269 -0.429,0.135 -0.89,0.334 -0.461,0.199 0.297,0.328 0.757,0.129 1.632,0.071"
     id="STROKE_F0C864B4-AFC2-4683-949F-0AA188AB1EE7" />
  <path
     style="opacity:1;fill:none;stroke:#171612;stroke-width:4;stroke-linecap:round;stroke-linejoin:round;stroke-opacity:1"
     inkscape:connector-curvature="0"
     d="m 408.81406,106.15381 q -0.672,0.657 -0.805,1.09 -0.132,0.434 -0.195,0.961 -0.062,0.528 -0.133,1.324 -0.07,0.797 -0.101,1.295 -0.031,0.498 -0.094,1.032 -0.063,0.533 -0.102,1.259 -0.039,0.727 -0.101,1.459 -0.063,0.733 -0.164,1.594 -0.102,0.861 -0.203,1.793 -0.102,0.932 -0.196,1.858 -0.093,0.925 -0.195,1.921 -0.102,0.996 -0.234,2.291 -0.133,1.295 -0.297,2.42 -0.164,1.125 -0.297,2.491 -0.133,1.365 -0.297,2.689 -0.164,1.324 -0.336,2.918 -0.172,1.594 -0.305,2.789 -0.132,1.195 -0.296,2.783 -0.164,1.588 -0.227,2.684 -0.063,1.096 -0.164,2.127 -0.102,1.031 -0.172,2.156 -0.07,1.125 -0.133,1.992 -0.062,0.867 -0.133,1.694 -0.07,0.826 -0.101,1.623 -0.031,0.796 -0.063,1.394 -0.031,0.598 -0.062,1.295 -0.031,0.697 -0.07,1.295 -0.039,0.598 -0.071,1.125 -0.031,0.527 -0.031,1.289 0,0.762 0.031,1.195 0.032,0.434 1.235,0.563"
     id="STROKE_31FB1ED4-F434-4778-8CE9-D16D9BE35559" />
  <path
     style="opacity:1;fill:none;stroke:#171612;stroke-width:4;stroke-linecap:round;stroke-linejoin:round;stroke-opacity:1"
     inkscape:connector-curvature="0"
     d="m 417.17306,154.78681 q -0.734,1.254 -1.101,2.022 -0.367,0.767 -0.461,1.166 -0.094,0.398 -0.195,0.861 -0.102,0.463 -0.133,0.926 -0.031,0.463 -0.07,0.926 -0.04,0.463 -0.04,0.896 0,0.434 0,0.867 0,0.434 0.102,1.16 0.102,0.727 0.5,1.161 0.398,0.433 0.898,0.662 0.5,0.228 1.094,0.299 0.594,0.07 1.258,0.07 0.664,0 1.43,-0.199 0.765,-0.2 1.195,-0.469 0.43,-0.27 0.859,-0.633 0.43,-0.363 0.797,-0.726 0.367,-0.364 0.867,-0.897 0.5,-0.533 0.829,-0.961 0.328,-0.428 0.695,-0.961 0.367,-0.533 0.664,-0.996 0.297,-0.463 0.531,-0.896 0.235,-0.434 0.43,-0.862 0.195,-0.427 0.367,-0.961 0.172,-0.533 0.305,-1.33 0.133,-0.797 0.133,-1.224 0,-0.428 0,-0.862 0,-0.433 -0.039,-1.095 -0.039,-0.662 -0.438,-1.196 -0.398,-0.533 -0.992,-0.896 -0.594,-0.363 -1.359,-0.627 -0.766,-0.264 -1.524,-0.363 -0.758,-0.1 -1.492,-0.1 -0.734,0 -1.367,0.064 -0.633,0.065 -1.094,0.428 -0.461,0.363 -0.656,0.727 -0.196,0.363 -0.297,0.761 -0.102,0.399 0.226,1.395"
     id="STROKE_C42EFFC8-2B16-42CD-8D53-4537D8E0D297" />
  <path
     style="opacity:1;fill:none;stroke:#171612;stroke-width:4;stroke-linecap:round;stroke-linejoin:round;stroke-opacity:1"
     inkscape:connector-curvature="0"
     d="m 450.93906,147.75581 q -0.719,0.457 -1.219,0.926 -0.5,0.469 -0.734,0.797 -0.234,0.328 -0.727,1.16 -0.492,0.832 -0.726,1.359 -0.234,0.528 -0.5,1.225 -0.266,0.697 -0.43,1.26 -0.164,0.562 -0.398,1.359 -0.235,0.797 -0.399,1.43 -0.164,0.632 -0.297,1.33 -0.132,0.697 -0.304,1.424 -0.172,0.726 -0.235,1.259 -0.062,0.534 -0.093,0.967 -0.032,0.434 -0.071,0.861 -0.039,0.428 -0.07,1.026 -0.031,0.597 0.039,0.996 0.07,0.398 0.664,0.533 0.594,0.135 1.195,0.065 0.602,-0.071 0.961,-0.399 0.36,-0.328 0.727,-0.697 0.367,-0.369 0.766,-0.832 0.398,-0.463 0.765,-0.961 0.367,-0.498 0.766,-1.096 0.398,-0.597 0.797,-1.295 0.398,-0.697 1.117,-2.08"
     id="STROKE_8F28E2ED-3887-450E-97F0-BFE1808341D8" />
  <path
     style="opacity:1;fill:none;stroke:#171612;stroke-width:4;stroke-linecap:round;stroke-linejoin:round;stroke-opacity:1"
     inkscape:connector-curvature="0"
     d="m 460.23606,136.01381 q 0.266,-1.535 0.367,-2.362 0.102,-0.826 0.164,-1.459 0.063,-0.632 0.094,-1.13 0.031,-0.498 0.031,-0.926 0,-0.428 0,-0.861 0,-0.434 -0.359,0 -0.36,0.433 -0.594,0.861 -0.234,0.428 -0.437,0.826 -0.203,0.398 -0.43,0.861 -0.227,0.463 -0.492,0.996 -0.266,0.534 -0.5,1.067 -0.235,0.533 -0.438,1.096 -0.203,0.562 -0.429,1.289 -0.227,0.726 -0.391,1.259 -0.164,0.534 -0.367,1.266 -0.203,0.732 -0.367,1.395 -0.165,0.662 -0.297,1.488 -0.133,0.826 -0.266,1.424 -0.133,0.597 -0.266,1.494 -0.132,0.896 -0.234,1.658 -0.102,0.762 -0.164,1.459 -0.062,0.697 -0.133,1.465 -0.07,0.767 -0.101,1.33 -0.032,0.562 -0.032,1.09 0,0.527 0,0.961 0,0.433 0,1.23 0,0.797 0.164,1.424 0.164,0.627 0.43,1.061 0.266,0.433 0.664,0.796 0.399,0.364 0.992,0.399 0.594,0.035 1.094,-0.199 0.5,-0.235 1.102,-0.797 0.601,-0.563 0.898,-0.897 0.297,-0.334 0.625,-0.726 0.328,-0.393 0.664,-0.762 0.336,-0.369 0.664,-0.768 0.328,-0.398 0.664,-0.761 0.336,-0.364 0.633,-0.698 0.297,-0.334 0.594,-0.632 0.297,-0.299 0.828,-0.827 0.531,-0.527 0.93,-0.791 0.398,-0.263 0.828,-0.398 0.43,-0.135 0.898,-0.135 0.469,0 0.766,0.463 0.297,0.463 0.328,0.996 0.031,0.533 0.031,1.295 0,0.762 0,1.559 0,0.797 -0.062,1.259 -0.063,0.463 -0.164,0.862 -0.102,0.398 -0.235,0.931 -0.132,0.534 -0.265,0.961 -0.133,0.428 -0.399,1.225 -0.265,0.797 -0.531,1.494 -0.266,0.697 -0.563,1.295 -0.296,0.598 -0.562,0.996 -0.266,0.399 -0.633,0.762 -0.367,0.363 0.164,0.234 0.531,-0.129 0.93,-0.299 0.398,-0.17 0.859,-0.234 0.461,-0.064 0.961,-0.1 0.5,-0.035 1.031,-0.035 0.532,0 1.094,0 0.563,0 1.766,-0.058"
     id="STROKE_7D24504C-01F8-44C2-B036-1FAD122F36E1" />
  <path
     style="opacity:1;fill:none;stroke:#171612;stroke-width:4;stroke-linecap:round;stroke-linejoin:round;stroke-opacity:1"
     inkscape:connector-curvature="0"
     d="m 502.50206,139.45881 q -0.141,-1.394 -0.336,-1.758 -0.196,-0.363 -0.563,-0.533 -0.367,-0.17 -0.734,0.199 -0.367,0.369 -0.531,0.768 -0.165,0.398 -0.36,0.797 -0.195,0.398 -0.398,0.896 -0.203,0.498 -0.43,1.061 -0.227,0.562 -0.461,1.125 -0.234,0.562 -0.469,1.16 -0.234,0.598 -0.468,1.23 -0.235,0.633 -0.43,1.26 -0.195,0.627 -0.399,1.26 -0.203,0.633 -0.367,1.26 -0.164,0.627 -0.297,1.259 -0.132,0.633 -0.234,1.196 -0.102,0.562 -0.164,1.16 -0.062,0.598 -0.094,1.096 -0.031,0.498 -0.031,0.931 0,0.434 0,0.897 0,0.463 0.133,1.09 0.133,0.627 0.562,1.16 0.43,0.533 0.992,0.896 0.563,0.364 1.196,0.463 0.633,0.1 1.062,0.1 0.43,0 1.227,-0.399 0.797,-0.398 1.258,-0.826 0.461,-0.428 1.336,-1.494"
     id="STROKE_AABBA3E5-2ED0-4454-B941-AD864AE38F53" />
  <path
     style="opacity:1;fill:none;stroke:#171612;stroke-width:4;stroke-linecap:round;stroke-linejoin:round;stroke-opacity:1"
     inkscape:connector-curvature="0"
     d="m 516.89206,121.61081 q -1.062,0.926 -1.258,1.424 -0.195,0.498 -0.359,1.131 -0.164,0.633 -0.297,1.395 -0.133,0.761 -0.265,1.523 -0.133,0.762 -0.305,1.693 -0.172,0.932 -0.336,1.793 -0.164,0.862 -0.297,1.758 -0.133,0.897 -0.226,1.723 -0.094,0.826 -0.227,1.723 -0.133,0.896 -0.234,1.728 -0.102,0.832 -0.172,1.658 -0.071,0.826 -0.133,1.588 -0.063,0.762 -0.094,1.629 -0.031,0.867 -0.07,1.664 -0.039,0.797 -0.039,1.588 0,0.791 0,1.559 0,0.767 0,1.564 0,0.797 0.101,1.359 0.102,0.563 0.305,1.19 0.203,0.627 0.398,0.996 0.196,0.369 0.461,0.832 0.266,0.463 0.828,0.897 0.563,0.433 1.227,0.533 0.664,0.099 1.094,0.099 0.429,0 0.828,-0.334 0.398,-0.334 0.797,-0.732 0.398,-0.399 0.898,-0.996 0.5,-0.598 0.93,-1.16 0.43,-0.563 0.797,-1.096 0.367,-0.533 0.765,-1.096 0.399,-0.562 0.797,-1.125 0.399,-0.562 0.727,-1.06 0.328,-0.498 0.664,-0.967 0.336,-0.469 0.562,-0.832 0.227,-0.363 0.493,-0.762 0.265,-0.398 0.5,-0.726 0.234,-0.329 0.57,-0.827 0.336,-0.498 0.633,-0.796 0.297,-0.299 0.461,0.328 0.164,0.627 0.164,1.095 0,0.469 0,0.897 0,0.428 0,1.025 0,0.598 0,1.196 0,0.597 0,1.23 0,0.633 0,1.231 0,0.597 -0.031,1.359 -0.032,0.762 -0.032,1.324 0,0.563 0,1.195 0,0.633 0,1.131 0,0.498 0,0.961 0,0.463 0.063,0.891 0.062,0.428 0.226,0.826 0.164,0.398 0.5,1.031 0.336,0.633 0.797,1.196 0.461,0.562 0.992,1.095 0.532,0.533 1.735,1.131"
     id="STROKE_5F76B300-D81B-4C5B-B17F-D9168DF2A921" />
  <path
     style="opacity:1;fill:none;stroke:#171612;stroke-width:4;stroke-linecap:round;stroke-linejoin:round;stroke-opacity:1"
     inkscape:connector-curvature="0"
     d="m 548.40806,142.10781 q -1.188,0 -1.586,0.298 -0.399,0.299 -0.633,0.633 -0.234,0.334 -0.43,0.932 -0.195,0.598 -0.328,1.096 -0.132,0.498 -0.265,1.16 -0.133,0.662 -0.235,1.394 -0.101,0.733 -0.132,1.196 -0.032,0.462 -0.102,1.224 -0.07,0.762 -0.07,1.494 0,0.733 0,1.36 0,0.627 0.07,1.095 0.07,0.469 0.336,0.797 0.266,0.328 0.594,0.563 0.328,0.234 0.828,0.363 0.5,0.129 1.031,-0.07 0.531,-0.2 0.93,-0.762 0.398,-0.562 0.797,-1.125 0.398,-0.563 0.796,-1.16 0.399,-0.598 0.758,-1.16 0.36,-0.563 0.664,-1.061 0.305,-0.498 0.571,-1.06 0.265,-0.563 0.492,-1.231 0.226,-0.668 0.429,-1.394 0.204,-0.727 0.305,-1.125 0.102,-0.399 0.235,-0.897 0.132,-0.498 0.226,-0.932 0.094,-0.433 0.227,-0.832 0.133,-0.398 0.234,-0.861 0.102,-0.463 0.305,-1.16 0.203,-0.697 0.336,-1.324 0.132,-0.627 0.195,-1.061 0.063,-0.433 -0.102,0.199 -0.164,0.633 -0.265,1.131 -0.102,0.498 -0.164,0.961 -0.063,0.463 -0.133,0.99 -0.07,0.528 -0.133,0.997 -0.062,0.468 -0.133,0.996 -0.07,0.527 -0.133,1.025 -0.062,0.498 -0.132,1.061 -0.071,0.562 -0.102,1.06 -0.031,0.498 -0.133,1.131 -0.101,0.633 -0.133,1.195 -0.031,0.563 -0.101,1.16 -0.07,0.598 -0.102,1.131 -0.031,0.534 -0.062,1.096 -0.031,0.562 -0.063,1.389 -0.031,0.826 -0.031,1.658 0,0.832 0.266,1.494 0.265,0.662 0.562,1.061 0.297,0.398 0.727,0.597 0.43,0.199 0.859,0.299 0.43,0.1 1.43,0.24"
     id="STROKE_0F226CB5-BE66-4FD5-82A7-30C388F01082" />
  <path
     style="opacity:1;fill:none;stroke:#171612;stroke-width:4;stroke-linecap:round;stroke-linejoin:round;stroke-opacity:1"
     inkscape:connector-curvature="0"
     d="m 571.43906,142.44681 q -0.594,0.598 -0.93,0.961 -0.336,0.364 -0.531,0.897 -0.195,0.533 -0.297,1.096 -0.101,0.562 -0.203,1.324 -0.101,0.761 -0.101,1.224 0,0.463 -0.032,1.231 -0.031,0.767 -0.031,1.26 0,0.492 -0.031,1.16 -0.031,0.668 -0.031,1.23 0,0.563 0.921,1.031"
     id="STROKE_37B424A7-4EDA-4D7A-806E-4530B8BFB7B6" />
  <path
     style="opacity:1;fill:none;stroke:#171612;stroke-width:4;stroke-linecap:round;stroke-linejoin:round;stroke-opacity:1"
     inkscape:connector-curvature="0"
     d="m 575.75206,126.25181 q -1,-0.926 -1.985,-1.324"
     id="STROKE_2A3EBCE9-09DF-4939-9434-217A1CB6F8B4" />
  <path
     style="opacity:1;fill:none;stroke:#171612;stroke-width:4;stroke-linecap:round;stroke-linejoin:round;stroke-opacity:1"
     inkscape:connector-curvature="0"
     d="m 587.89206,135.47481 q -0.062,1.125 -0.226,1.658 -0.164,0.533 -0.266,1.166 -0.101,0.633 -0.133,1.43 -0.031,0.797 -0.031,1.224 0,0.428 0,0.891 0,0.463 0,1.295 0,0.832 0.031,1.33 0.032,0.498 0.164,1.324 0.133,0.826 0.368,1.594 0.234,0.767 0.531,1.23 0.297,0.463 0.695,0.662 0.398,0.2 0.891,0.2 0.492,0 1.125,-0.399 0.632,-0.398 0.929,-0.697 0.297,-0.299 0.664,-0.697 0.368,-0.399 0.696,-0.832 0.328,-0.434 0.695,-0.862 0.367,-0.427 0.703,-0.861 0.336,-0.434 0.664,-0.896 0.328,-0.463 0.625,-0.897 0.297,-0.434 0.563,-0.861 0.265,-0.428 0.703,-1.061 0.437,-0.633 0.734,-1.131 0.297,-0.498 0.594,-0.826 0.297,-0.328 0.328,0.299 0.031,0.627 0.031,1.16 0,0.533 0,1.061 0,0.527 0,1.125 0,0.597 0,1.23 0,0.633 0,1.395 0,0.761 0,1.295 0,0.533 0,0.996 0,0.463 0.032,0.996 0.031,0.533 0.437,1.26"
     id="STROKE_D7D05712-379B-4E4C-849B-409EE16EF96A" />
</svg>
