<?xml version="1.0" encoding="UTF-8" standalone="no"?>
<svg
   xmlns:dc="http://purl.org/dc/elements/1.1/"
   xmlns:cc="http://creativecommons.org/ns#"
   xmlns:rdf="http://www.w3.org/1999/02/22-rdf-syntax-ns#"
   xmlns:svg="http://www.w3.org/2000/svg"
   xmlns="http://www.w3.org/2000/svg"
   xmlns:sodipodi="http://sodipodi.sourceforge.net/DTD/sodipodi-0.dtd"
   xmlns:inkscape="http://www.inkscape.org/namespaces/inkscape"
   width="51.467739mm"
   height="13.063075mm"
   version="1.1"
   viewBox="351.893372 54.183662 267.469604 67.886711"
   id="svg1066"
   sodipodi:docname="Cryptography.svg"
   inkscape:version="0.92.3 (2405546, 2018-03-11)">
  <metadata
     id="metadata1072">
    <rdf:RDF>
      <cc:Work
         rdf:about="">
        <dc:format>image/svg+xml</dc:format>
        <dc:type
           rdf:resource="http://purl.org/dc/dcmitype/StillImage" />
      </cc:Work>
    </rdf:RDF>
  </metadata>
  <defs
     id="defs1070" />
  <sodipodi:namedview
     pagecolor="#ffffff"
     bordercolor="#666666"
     borderopacity="1"
     objecttolerance="10"
     gridtolerance="10"
     guidetolerance="10"
     inkscape:pageopacity="0"
     inkscape:pageshadow="2"
     inkscape:window-width="1533"
     inkscape:window-height="845"
     id="namedview1068"
     showgrid="false"
     inkscape:zoom="3.2455487"
     inkscape:cx="135.99058"
     inkscape:cy="18.264107"
     inkscape:window-x="67"
     inkscape:window-y="27"
     inkscape:window-maximized="1"
     inkscape:current-layer="svg1066" />
  <!--
	Exported with Concepts: Smarter Sketching
	Version: 616
	iOS Version: 11.4
	https://concepts.tophatch.com/
	-->
  <title
     id="title1039">Ohne Titel 28</title>
  <desc
     id="desc1041">Drawing exported from Concepts: Smarter Sketching</desc>
  <path
     style="opacity:1;fill:none;stroke:#171612;stroke-width:3;stroke-linecap:round;stroke-linejoin:round;stroke-opacity:1"
     inkscape:connector-curvature="0"
     d="m 367,65.812 q -0.328,-0.527 -0.664,-0.527 -0.336,0 -0.531,0.399 -0.196,0.398 -0.36,0.796 -0.164,0.399 -0.429,0.827 -0.266,0.427 -0.532,0.896 -0.265,0.469 -0.57,0.996 -0.305,0.528 -0.469,0.826 -0.164,0.299 -0.328,0.598 -0.164,0.299 -0.367,0.633 -0.203,0.334 -0.43,0.732 -0.226,0.399 -0.461,0.797 -0.234,0.399 -0.468,0.826 -0.235,0.428 -0.461,0.897 -0.227,0.469 -0.492,0.931 -0.266,0.463 -0.532,0.961 -0.265,0.498 -0.5,0.926 -0.234,0.428 -0.468,0.926 -0.235,0.498 -0.43,0.932 -0.196,0.433 -0.367,0.832 -0.172,0.398 -0.368,0.861 -0.195,0.463 -0.328,0.896 -0.133,0.434 -0.265,0.897 -0.133,0.463 -0.235,0.896 -0.101,0.434 -0.164,0.797 -0.062,0.364 -0.093,0.826 -0.032,0.463 -0.071,0.961 -0.039,0.498 -0.07,0.996 -0.031,0.499 -0.031,0.997 0,0.498 0,1.025 0,0.527 0,1.061 0,0.533 0,0.966 0,0.434 0.031,0.932 0.031,0.498 0.164,0.861 0.133,0.364 0.336,0.762 0.203,0.398 0.43,0.797 0.226,0.398 0.429,0.662 0.203,0.264 0.5,0.527 0.297,0.264 0.633,0.563 0.336,0.299 0.664,0.568 0.328,0.27 0.664,0.469 0.336,0.199 0.797,0.428 0.461,0.228 0.797,0.398 0.336,0.17 0.766,0.27 0.429,0.099 0.859,0.193 0.43,0.094 0.859,0.164 0.43,0.07 0.93,0.1 0.5,0.029 0.961,0.029 0.461,0 0.828,0 0.367,0 0.828,0 0.461,0 0.899,0 0.437,0 0.898,0 0.461,0 0.797,-0.064 0.336,-0.065 0.695,-0.229 0.36,-0.164 0.696,-0.299 0.335,-0.135 0.929,-0.533"
     id="STROKE_F0ACE806-4A4B-48F3-BCD9-223D3693830D" />
  <path
     style="opacity:1;fill:none;stroke:#171612;stroke-width:3;stroke-linecap:round;stroke-linejoin:round;stroke-opacity:1"
     inkscape:connector-curvature="0"
     d="m 388.234,82.406 q -0.468,0.598 -0.531,1.125 -0.062,0.528 -0.101,0.862 -0.04,0.334 -0.04,0.697 0,0.363 0,0.762 0,0.398 0,0.861 0,0.463 0,0.996 0,0.533 0,1.031 0,0.498 0,0.996 0,0.498 0,1.026 0,0.527 0,1.06 0,0.533 0,1.096 0,0.562 0,1.061 0,0.498 0,0.931 0,0.434 0,0.832 0,0.399 0,0.826 0,0.428 0.235,0.2 0.234,-0.229 0.336,-0.563 0.101,-0.334 0.234,-0.797 0.133,-0.463 0.297,-0.931 0.164,-0.469 0.328,-0.997 0.164,-0.527 0.336,-1.089 0.172,-0.563 0.367,-1.161 0.196,-0.597 0.399,-1.195 0.203,-0.597 0.429,-1.195 0.227,-0.598 0.43,-1.16 0.203,-0.563 0.469,-1.16 0.266,-0.598 0.492,-1.096 0.227,-0.498 0.492,-1.061 0.266,-0.562 0.5,-1.031 0.235,-0.469 0.5,-0.932 0.266,-0.462 0.532,-0.896 0.265,-0.434 0.531,-0.861 0.265,-0.428 0.469,-0.762 0.203,-0.334 0.46,-0.662 0.258,-0.328 0.493,-0.598 0.234,-0.269 0.57,-0.568 0.336,-0.299 0.992,-0.428"
     id="STROKE_3B235CD8-CAAA-4578-8064-E53BE5A286FF" />
  <path
     style="opacity:1;fill:none;stroke:#171612;stroke-width:3;stroke-linecap:round;stroke-linejoin:round;stroke-opacity:1"
     inkscape:connector-curvature="0"
     d="m 403.359,86.449 q 1,0.27 1.329,0.533 0.328,0.264 0.664,0.563 0.336,0.299 0.632,0.662 0.297,0.363 0.594,0.727 0.297,0.363 0.531,0.662 0.235,0.299 0.43,0.568 0.195,0.27 0.43,0.533 0.234,0.264 0.437,0.862"
     id="STROKE_917E299B-F8C0-4E98-AA32-53281C50AE18" />
  <path
     style="opacity:1;fill:none;stroke:#171612;stroke-width:3;stroke-linecap:round;stroke-linejoin:round;stroke-opacity:1"
     inkscape:connector-curvature="0"
     d="m 418.094,83.203 q -0.672,0.598 -1,0.897 -0.328,0.298 -0.625,0.627 -0.297,0.328 -0.633,0.761 -0.336,0.434 -0.664,0.862 -0.328,0.427 -0.664,0.925 -0.336,0.498 -0.633,1.067 -0.297,0.568 -0.531,1.06 -0.235,0.493 -0.43,1.026 -0.195,0.533 -0.398,1.131 -0.204,0.597 -0.368,1.13 -0.164,0.534 -0.296,1.161 -0.133,0.627 -0.266,1.224 -0.133,0.598 -0.266,1.231 -0.132,0.633 -0.195,1.195 -0.063,0.562 -0.133,1.16 -0.07,0.598 -0.133,1.16 -0.062,0.563 -0.101,0.996 -0.039,0.434 -0.039,0.932 0,0.498 0,0.897 0,0.398 0,0.761 0,0.364 0,0.692 0,0.328 0.101,0.797 0.102,0.468 0.633,0.996"
     id="STROKE_367DD6CA-A513-4DA9-8EFC-EA28757D52F0" />
  <path
     style="opacity:1;fill:none;stroke:#171612;stroke-width:3;stroke-linecap:round;stroke-linejoin:round;stroke-opacity:1"
     inkscape:connector-curvature="0"
     d="m 433.281,86.848 q -0.39,0.668 -0.523,1.095 -0.133,0.428 -0.164,0.762 -0.032,0.334 -0.071,0.633 -0.039,0.299 -0.039,0.662 0,0.363 0,1.025 0,0.663 0,0.996 0,0.334 0.039,0.833 0.039,0.498 0.133,0.826 0.094,0.328 0.196,0.861 0.101,0.533 0.203,1.031 0.101,0.498 0.195,1.061 0.094,0.562 0.164,1.16 0.07,0.598 0.133,1.195 0.062,0.598 0.133,1.196 0.07,0.597 0.101,1.195 0.031,0.598 0.063,1.131 0.031,0.533 0.101,1.095 0.071,0.563 0.133,0.961 0.063,0.399 0.102,0.762 0.039,0.363 0.132,0.826 0.094,0.463 0.133,0.135 0.039,-0.328 0.039,-0.727 0,-0.398 -0.07,-0.832 -0.07,-0.433 -0.203,-0.896 -0.133,-0.463 -0.195,-0.961 -0.063,-0.498 -0.196,-1.195 -0.132,-0.698 -0.203,-1.26 -0.07,-0.563 -0.172,-1.225 -0.101,-0.662 -0.195,-1.33 -0.094,-0.668 -0.164,-1.295 -0.07,-0.627 -0.133,-1.259 -0.062,-0.633 -0.133,-1.33 -0.07,-0.698 -0.132,-1.295 -0.063,-0.598 -0.094,-1.225 -0.032,-0.627 -0.071,-1.225 -0.039,-0.597 -0.07,-1.195 -0.031,-0.598 -0.031,-1.131 0,-0.533 0,-1.06 0,-0.528 0,-0.996 0,-0.469 0.031,-0.832 0.031,-0.364 0.164,-0.791 0.133,-0.428 0.266,-0.762 0.133,-0.334 0.336,-0.633 0.203,-0.299 0.398,-0.598 0.195,-0.298 0.399,-0.562 0.203,-0.264 0.468,-0.498 0.266,-0.235 0.493,-0.469 0.226,-0.234 0.461,-0.434 0.234,-0.199 0.734,-0.462 0.5,-0.264 0.93,-0.393 0.429,-0.129 0.828,-0.129 0.398,0 0.765,0 0.367,0 0.727,0.328 0.359,0.328 0.461,0.762 0.101,0.433 0.133,0.961 0.031,0.527 0.031,1.125 0,0.597 0,1.166 0,0.568 -0.195,1.131 -0.196,0.562 -0.399,0.861 -0.203,0.299 -0.43,0.527 -0.226,0.229 -0.461,0.463 -0.234,0.235 -0.5,0.399 -0.265,0.164 -0.765,0.363 -0.5,0.199 -1.563,0.34"
     id="STROKE_9590F2E0-CAC8-4CDE-A5A0-2159FE641FEF" />
  <path
     style="opacity:1;fill:none;stroke:#171612;stroke-width:3;stroke-linecap:round;stroke-linejoin:round;stroke-opacity:1"
     inkscape:connector-curvature="0"
     d="m 471.5,85.254 q -0.203,0.598 -0.234,0.996 -0.032,0.398 0.07,0.697 0.102,0.299 0.43,0.598 0.328,0.299 0.828,0.562 0.5,0.264 1.101,0.534 0.602,0.269 0.961,0.398 0.36,0.129 0.727,0.229 0.367,0.099 0.734,0.164 0.367,0.064 0.766,0.134 0.398,0.071 0.797,0.135 0.398,0.065 0.859,0.065 0.461,0 0.828,0 0.367,0 0.828,0 0.461,0 0.828,-0.164 0.368,-0.164 0.696,-0.364 0.328,-0.199 0.633,-0.463 0.304,-0.263 0.632,-0.597 0.328,-0.334 0.532,-0.598 0.203,-0.264 0.398,-0.562 0.195,-0.299 0.328,-0.598 0.133,-0.299 0.266,-0.568 0.133,-0.27 0.195,-0.768 0.063,-0.498 0.063,-0.926 0,-0.428 -0.164,-0.762 -0.164,-0.334 -0.625,-0.662 -0.461,-0.328 -1.024,-0.597 -0.562,-0.27 -1.133,-0.434 -0.57,-0.164 -1.031,-0.264 -0.461,-0.099 -0.859,-0.134 -0.399,-0.035 -1.133,-0.035"
     id="STROKE_CB01FA5B-444F-47D2-8E53-06A5D70A9461" />
  <path
     style="opacity:1;fill:none;stroke:#171612;stroke-width:3;stroke-linecap:round;stroke-linejoin:round;stroke-opacity:1"
     inkscape:connector-curvature="0"
     d="m 476.875,82.734 q 0.406,-0.527 0.703,-0.627 0.297,-0.099 0.266,-0.398 -0.032,-0.299 -0.336,-0.299 -0.305,0 -0.633,0.029 -0.328,0.03 -0.625,0.229 -0.297,0.199 -0.633,0.498 -0.336,0.299 -0.562,0.498 -0.227,0.199 -0.625,0.568 -0.399,0.37 -0.836,0.733 -0.438,0.363 -0.836,0.726 -0.399,0.364 -0.727,0.627 -0.328,0.264 -0.734,0.733"
     id="STROKE_AA92F2F9-4FA7-4B1A-8A47-CA29B4E20F91" />
  <path
     style="opacity:1;fill:none;stroke:#171612;stroke-width:3;stroke-linecap:round;stroke-linejoin:round;stroke-opacity:1"
     inkscape:connector-curvature="0"
     d="m 503.219,77.895 q -0.86,0.457 -1.196,0.855 -0.335,0.398 -0.562,0.861 -0.227,0.463 -0.399,0.996 -0.171,0.534 -0.203,0.897 -0.031,0.363 0,0.662 0.032,0.299 0.336,0.334 0.305,0.035 0.735,-0.299 0.429,-0.334 0.695,-0.697 0.266,-0.363 0.492,-0.697 0.227,-0.334 0.758,-1.119"
     id="STROKE_C857345D-BF55-4651-AA73-FED2BFA6398B" />
  <path
     style="opacity:1;fill:none;stroke:#171612;stroke-width:3.00300002;stroke-linecap:round;stroke-linejoin:round;stroke-opacity:1"
     inkscape:connector-curvature="0"
     d="m 507.062,74.438 q 0.266,-0.598 0.102,-0.165 -0.164,0.434 -0.266,0.832 -0.101,0.399 -0.195,0.862 -0.094,0.463 -0.164,0.926 -0.07,0.462 -0.172,1.06 -0.101,0.598 -0.164,1.195 -0.062,0.598 -0.133,1.231 -0.07,0.633 -0.101,1.33 -0.031,0.697 -0.063,1.324 -0.031,0.627 -0.062,1.324 -0.032,0.698 -0.032,1.53 0,0.832 0,1.558 0,0.727 0,1.588 0,0.862 0,1.729 0,0.867 0.165,1.963 0.164,1.095 0.328,1.986 0.164,0.891 0.398,2.185 0.235,1.295 0.469,2.426 0.234,1.131 0.492,2.391 0.258,1.26 0.563,2.555 0.304,1.294 0.57,2.455 0.265,1.16 0.531,2.355 0.266,1.195 0.563,2.32 0.297,1.125 0.531,1.858 0.234,0.732 0.43,1.359 0.195,0.627 0.359,1.061 0.164,0.433 0.297,0.832 0.133,0.398 0.265,0.762 0.133,0.363 -0.265,0.035 -0.399,-0.328 -0.727,-0.698 -0.328,-0.369 -0.625,-0.732 -0.297,-0.363 -0.695,-0.797 -0.399,-0.433 -0.766,-0.861 -0.367,-0.428 -0.867,-0.996 -0.5,-0.569 -0.859,-0.996 -0.36,-0.428 -0.828,-0.961 -0.469,-0.534 -0.93,-1.061 -0.461,-0.527 -0.828,-0.996 -0.367,-0.469 -0.766,-0.961 -0.398,-0.492 -0.726,-0.961 -0.329,-0.469 -0.563,-0.797 -0.234,-0.328 -0.5,-0.761 -0.266,-0.434 -0.43,-0.768 -0.164,-0.334 -0.296,-0.662 -0.133,-0.328 -0.172,-0.627 -0.039,-0.299 -0.071,-0.832 -0.031,-0.533 0.102,-1.131 0.133,-0.598 0.367,-0.896 0.234,-0.299 0.563,-0.627 0.328,-0.329 0.695,-0.663 0.367,-0.333 0.695,-0.632 0.328,-0.299 0.766,-0.698 0.437,-0.398 1.156,-1.054"
     id="STROKE_C14885BF-379E-4815-B8C0-3BB2C11FCD21" />
  <path
     style="opacity:1;fill:none;stroke:#171612;stroke-width:3;stroke-linecap:round;stroke-linejoin:round;stroke-opacity:1"
     inkscape:connector-curvature="0"
     d="m 523.922,76.957 q 0.062,-0.656 0.359,-0.727 0.297,-0.07 0.602,-0.07 0.305,0 0.633,0.199 0.328,0.2 0.664,0.768 0.336,0.568 0.461,0.932 0.125,0.363 0.226,0.826 0.102,0.463 0.172,0.961 0.07,0.498 0.102,1.031 0.031,0.533 0.031,1.061 0,0.527 0,1.06 0,0.533 0,0.996 0,0.463 0,0.961 0,0.498 0,0.832 0,0.334 0,0.733 0,0.398 0,0.726 0,0.328 -0.07,0.762 -0.071,0.433 -0.164,0.732 -0.094,0.299 -0.133,-0.064 -0.039,-0.364 -0.039,-1.096 0,-0.732 0.132,-1.131 0.133,-0.398 0.305,-0.861 0.172,-0.463 0.336,-0.926 0.164,-0.463 0.328,-0.832 0.164,-0.369 0.367,-0.797 0.204,-0.428 0.336,-0.726 0.133,-0.299 0.297,-0.633 0.164,-0.334 0.297,-0.633 0.133,-0.299 0.664,-1.225"
     id="STROKE_F8346635-1072-46B3-A06A-D6E12B925967" />
  <path
     style="opacity:1;fill:none;stroke:#171612;stroke-width:3;stroke-linecap:round;stroke-linejoin:round;stroke-opacity:1"
     inkscape:connector-curvature="0"
     d="m 537.391,77.953 q -0.735,-0.129 -1,0.135 -0.266,0.264 -0.36,0.732 -0.093,0.469 -0.164,1.096 -0.07,0.627 -0.101,0.961 -0.032,0.334 -0.032,0.662 0,0.328 0,0.662 0,0.334 0,0.932 0,0.597 0,1.06 0,0.463 0.032,0.797 0.031,0.334 0.265,0.662 0.235,0.328 0.563,0.399 0.328,0.07 0.695,-0.199 0.367,-0.27 0.664,-0.768 0.297,-0.498 0.461,-0.861 0.164,-0.364 0.336,-0.692 0.172,-0.328 0.367,-0.726 0.195,-0.399 0.36,-0.733 0.164,-0.334 0.335,-0.697 0.172,-0.363 0.336,-0.697 0.164,-0.334 0.391,-0.797 0.227,-0.463 0.399,-0.762 0.171,-0.299 0.398,0.065 0.226,0.363 0.266,1.06 0.039,0.697 0.039,1.131 0,0.434 0,0.896 0,0.463 0,0.797 0,0.334 0,0.733 0,0.398 0,0.726 0,0.328 0.031,0.891 0.031,0.562 0.062,0.996 0.032,0.434 0.172,1.102"
     id="STROKE_6400796B-B098-4A93-9824-D153CAA80E7E" />
  <path
     style="opacity:1;fill:none;stroke:#171612;stroke-width:3;stroke-linecap:round;stroke-linejoin:round;stroke-opacity:1"
     inkscape:connector-curvature="0"
     d="m 557.891,79.547 q -0.391,0.469 -0.625,0.832 -0.235,0.363 -0.399,0.762 -0.164,0.398 -0.336,0.961 -0.172,0.562 -0.304,1.095 -0.133,0.533 -0.266,1.26 -0.133,0.727 -0.195,1.324 -0.063,0.598 -0.133,1.465 -0.071,0.867 -0.102,1.494 -0.031,0.627 -0.031,1.389 0,0.762 0,1.559 0,0.796 0,1.494 0,0.697 0,1.459 0,0.761 0.102,1.558 0.101,0.797 0.164,1.395 0.062,0.597 0.195,1.33 0.133,0.732 0.234,1.359 0.102,0.627 0.203,1.225 0.102,0.597 0.204,1.031 0.101,0.434 0.195,0.996 0.094,0.563 0.195,0.897 0.102,0.334 0.203,0.632 0.102,0.299 0.235,0.663 0.132,0.363 0.297,0 0.164,-0.364 0.195,-0.698 0.031,-0.334 0.031,-0.697 0,-0.363 0.039,-0.797 0.039,-0.433 0.039,-0.931 0,-0.499 0,-1.026 0,-0.527 0,-1.025 0,-0.498 0,-1.096 0,-0.598 -0.039,-1.16 -0.039,-0.563 -0.133,-1.26 -0.093,-0.697 -0.297,-1.43 -0.203,-0.732 -0.468,-1.529 -0.266,-0.797 -0.5,-1.523 -0.235,-0.727 -0.532,-1.594 -0.296,-0.867 -0.593,-1.658 -0.297,-0.791 -0.625,-1.658 -0.328,-0.868 -0.594,-1.629 -0.266,-0.762 -0.5,-1.489 -0.234,-0.726 -0.438,-1.423 -0.203,-0.698 -0.367,-1.366 -0.164,-0.668 -0.265,-1.23 -0.102,-0.563 -0.133,-1.026 -0.031,-0.462 -0.063,-0.896 -0.031,-0.434 -0.031,-0.861 0,-0.428 0.063,-1.026 0.062,-0.597 0.234,-0.867 0.172,-0.27 0.367,-0.498 0.195,-0.229 0.664,-0.627 0.469,-0.398 0.727,-0.562 0.258,-0.165 0.562,-0.299 0.305,-0.135 0.633,-0.235 0.328,-0.099 0.695,-0.164 0.368,-0.064 0.735,-0.099 0.367,-0.036 0.797,-0.036 0.429,0 0.758,0 0.328,0 0.796,0 0.469,0 0.828,0 0.36,0 0.797,0.135 0.438,0.135 0.868,0.299 0.429,0.164 0.796,0.299 0.368,0.135 0.766,0.334 0.399,0.199 0.828,0.428 0.43,0.228 0.758,0.392 0.328,0.164 0.664,0.363 0.336,0.2 0.633,0.434 0.297,0.234 0.562,0.469 0.266,0.234 0.664,0.662 0.399,0.428 0.633,0.896 0.235,0.469 0.297,0.932 0.063,0.463 0.063,0.861 0,0.399 -0.164,0.762 -0.165,0.363 -0.594,0.697 -0.43,0.334 -0.766,0.498 -0.336,0.165 -0.992,0.235"
     id="STROKE_EEBF889E-DBBC-4EA7-B7F1-C938219F0AC5" />
  <path
     style="opacity:1;fill:none;stroke:#171612;stroke-width:3;stroke-linecap:round;stroke-linejoin:round;stroke-opacity:1"
     inkscape:connector-curvature="0"
     d="m 583.828,58.781 q -0.39,0.867 -0.422,1.266 -0.031,0.398 -0.07,0.791 -0.039,0.392 -0.07,0.891 -0.032,0.498 -0.032,0.996 0,0.498 0,1.095 0,0.598 0,1.166 0,0.569 0,1.33 0,0.762 0,1.325 0,0.562 0,1.359 0,0.797 0,1.395 0,0.597 0,1.359 0,0.762 0,1.459 0,0.697 -0.031,1.494 -0.031,0.797 -0.062,1.359 -0.032,0.563 -0.032,1.196 0,0.633 0,1.16 0,0.527 0,0.961 0,0.433 0,0.832 0,0.398 0,0.726 0,0.329 0,0.727 0,0.398 0.196,0.668 0.195,0.269 0.429,0 0.235,-0.27 0.5,-0.768 0.266,-0.498 0.43,-0.797 0.164,-0.298 0.367,-0.626 0.203,-0.329 0.367,-0.627 0.164,-0.299 0.36,-0.563 0.195,-0.264 0.398,-0.498 0.203,-0.234 0.571,-0.568 0.367,-0.334 0.726,-0.463 0.359,-0.129 0.828,-0.129 0.469,0 0.664,0.264 0.196,0.263 0.328,0.697 0.133,0.433 0.204,1.025 0.07,0.592 0.07,1.19 0,0.597 0,1.195 0,0.598 -0.172,1.096 -0.172,0.498 -0.305,0.767 -0.132,0.27 -0.586,1.196"
     id="STROKE_91B6B111-876F-4F02-8C23-2A898D309E13" />
  <path
     style="opacity:1;fill:none;stroke:#171612;stroke-width:3;stroke-linecap:round;stroke-linejoin:round;stroke-opacity:1"
     inkscape:connector-curvature="0"
     d="m 599.625,77.297 q 0,0.656 0.102,1.125 0.101,0.469 0.335,0.961 0.235,0.492 0.368,0.762 0.132,0.269 0.429,0.732 0.297,0.463 0.657,0.896 0.359,0.434 0.796,0.862 0.438,0.427 0.899,0.861 0.461,0.434 0.695,0.633 0.235,0.199 0.5,0.398 0.266,0.2 0.532,0.364 0.265,0.164 0.531,0.328 0.265,0.164 0.797,0.363 0.531,0.199 0.961,0.299 0.429,0.099 0.828,0.099 0.398,0 0.797,0 0.398,0 1.132,-0.597"
     id="STROKE_676B2777-EAEF-4E4F-9B44-AB94402E343D" />
  <path
     style="opacity:1;fill:none;stroke:#171612;stroke-width:3;stroke-linecap:round;stroke-linejoin:round;stroke-opacity:1"
     inkscape:connector-curvature="0"
     d="m 614.75,78.152 q -0.062,-0.656 -0.094,-0.955 -0.031,-0.299 -0.164,-0.597 -0.133,-0.299 -0.5,-0.17 -0.367,0.129 -0.633,0.527 -0.265,0.398 -0.398,0.668 -0.133,0.27 -0.461,0.768 -0.328,0.498 -0.664,1.06 -0.336,0.563 -0.5,0.826 -0.164,0.264 -0.359,0.598 -0.196,0.334 -0.399,0.662 -0.203,0.328 -0.469,0.697 -0.265,0.369 -0.429,0.668 -0.164,0.299 -0.43,0.698 -0.266,0.398 -0.469,0.691 -0.203,0.293 -0.469,0.627 -0.265,0.334 -0.531,0.668 -0.265,0.334 -0.531,0.633 -0.266,0.299 -0.531,0.597 -0.266,0.299 -0.563,0.662 -0.297,0.364 -0.562,0.627 -0.266,0.264 -0.563,0.598 -0.297,0.334 -0.625,0.662 -0.328,0.328 -0.633,0.662 -0.304,0.334 -0.57,0.598 -0.265,0.264 -0.625,0.633 -0.359,0.369 -0.594,0.668 -0.234,0.299 -0.531,0.627 -0.297,0.328 -0.594,0.662 -0.297,0.334 -0.531,0.633 -0.234,0.298 -0.469,0.562 -0.234,0.264 -0.429,0.527 -0.196,0.264 -0.5,0.762 -0.305,0.498 -0.469,0.932 -0.164,0.433 -0.227,0.832 -0.062,0.398 -0.062,0.797 0,0.398 0.594,0.726"
     id="STROKE_BB95F3B3-F7E0-40AE-A2E3-17B5A5826511" />
  <path
     style="opacity:1;fill:none;stroke:#171612;stroke-width:3;stroke-linecap:round;stroke-linejoin:round;stroke-opacity:1"
     inkscape:connector-curvature="0"
     d="m 540.048,78.206 q -0.536,0.322 -0.826,0.237 -0.29,-0.085 -0.694,-0.558"
     id="STROKE_49A21475-450C-4E06-A11A-3A6EE09F806D" />
  <g
     id="g1641"
     transform="translate(-12.074205,-42.789288)">
    <path
       id="STROKE_99327816-636A-4D82-BDD7-C3D44AAAB9F2"
       d="m 469.81969,113.81093 q 0,-0.616 -0.174,-0.208 -0.173,0.407 -0.232,0.715 -0.06,0.308 -0.119,0.678 -0.059,0.369 -0.119,0.835 -0.059,0.465 -0.114,0.948 -0.055,0.483 -0.132,1.102 -0.078,0.62 -0.174,1.318 -0.095,0.698 -0.173,1.376 -0.078,0.678 -0.155,1.242 -0.078,0.565 -0.178,1.318 -0.101,0.753 -0.178,1.414 -0.078,0.66 -0.155,1.263 -0.078,0.602 -0.133,1.297 -0.054,0.695 -0.114,1.434 -0.059,0.74 -0.1,1.434 -0.041,0.695 -0.06,1.452 -0.018,0.756 -0.036,1.454 -0.018,0.699 -0.018,1.435 0,0.735 0,1.317 0,0.582 0,1.202 0,0.619 0.036,1.047 0.037,0.428 0.137,0.873 0.101,0.445 0.31,0.948 0.21,0.503 0.484,0.757 0.274,0.253 0.603,0.27 0.328,0.017 0.753,-0.212 0.424,-0.23 0.853,-0.695 0.429,-0.466 0.621,-0.739 0.191,-0.274 0.424,-0.545 0.233,-0.27 0.429,-0.523 0.196,-0.254 0.543,-0.678 0.347,-0.424 0.543,-0.657 0.197,-0.233 0.466,-0.582 0.269,-0.349 0.698,-1.123"
       inkscape:connector-curvature="0"
       style="opacity:1;fill:none;stroke:#171612;stroke-width:3;stroke-linecap:round;stroke-linejoin:round;stroke-opacity:1" />
    <path
       id="STROKE_1D05E65E-23EE-41B6-932A-23ABAFB8D26C"
       d="m 467.14469,121.13593 q -0.346,-0.541 -0.036,-0.832 0.31,-0.29 0.657,-0.465 0.347,-0.175 0.794,-0.407 0.447,-0.233 0.854,-0.408 0.406,-0.174 1.255,-0.366"
       inkscape:connector-curvature="0"
       style="opacity:1;fill:none;stroke:#171612;stroke-width:3;stroke-linecap:round;stroke-linejoin:round;stroke-opacity:1" />
  </g>
</svg>
