<?xml version="1.0" encoding="UTF-8" standalone="yes"?>
<svg xmlns="http://www.w3.org/2000/svg" xmlns:xlink="http://www.w3.org/1999/xlink" width="49.782990mm" height="14.322437mm" version="1.1" viewBox="337.785736 66.104477 258.714233 74.431412">
  <!--
	Exported with Concepts: Smarter Sketching
	Version: 620
	iOS Version: 11.4
	https://concepts.tophatch.com/
	-->
  <title>Ohne Titel 12</title>
  <desc>Drawing exported from Concepts: Smarter Sketching</desc>
  <g id="Stift" opacity="1.000">
    <path id="STROKE_46DDA1D7-C049-4524-8E07-65855E679F84" opacity="1.000" fill="none" stroke="#171612" stroke-width="4.000" stroke-opacity="1.000" stroke-linecap="round" stroke-linejoin="round" d="M 364.016 72.984 Q 364.406 72.047 364.406 71.619 Q 364.406 71.191 364.406 71.689 Q 364.406 72.188 364.312 73.084 Q 364.219 73.980 364.047 74.479 Q 363.875 74.977 363.680 75.639 Q 363.484 76.301 363.219 77.098 Q 362.953 77.895 362.656 78.656 Q 362.359 79.418 362.062 80.180 Q 361.766 80.941 361.328 81.902 Q 360.891 82.863 360.461 83.795 Q 360.031 84.727 359.570 85.688 Q 359.109 86.648 358.539 87.879 Q 357.969 89.109 357.273 90.568 Q 356.578 92.027 356.047 93.217 Q 355.516 94.406 354.789 96.000 Q 354.062 97.594 353.531 98.789 Q 353.000 99.984 352.305 101.479 Q 351.609 102.973 350.945 104.297 Q 350.281 105.621 349.680 106.980 Q 349.078 108.340 348.555 109.570 Q 348.031 110.801 347.531 112.160 Q 347.031 113.520 346.602 114.715 Q 346.172 115.910 345.773 117.006 Q 345.375 118.102 345.039 119.162 Q 344.703 120.223 344.375 121.383 Q 344.047 122.543 343.812 123.275 Q 343.578 124.008 343.383 124.605 Q 343.188 125.203 343.055 125.602 Q 342.922 126.000 342.820 126.463 Q 342.719 126.926 343.250 126.229 Q 343.781 125.531 344.438 124.406 "></path>
    <path id="STROKE_80760814-3D66-4228-9A9F-071C714121EE" opacity="1.000" fill="none" stroke="#171612" stroke-width="4.000" stroke-opacity="1.000" stroke-linecap="round" stroke-linejoin="round" d="M 363.547 71.121 Q 363.281 71.988 363.250 72.416 Q 363.219 72.844 363.383 73.213 Q 363.547 73.582 363.945 73.811 Q 364.344 74.039 364.875 74.238 Q 365.406 74.438 366.102 74.572 Q 366.797 74.707 367.227 74.771 Q 367.656 74.836 368.422 74.936 Q 369.188 75.035 369.586 75.100 Q 369.984 75.164 370.484 75.199 Q 370.984 75.234 371.781 75.299 Q 372.578 75.363 373.305 75.363 Q 374.031 75.363 374.695 75.363 Q 375.359 75.363 376.547 75.363 "></path>
    <path id="STROKE_C4E71973-7854-400B-B9EE-6B5F28AAA365" opacity="1.000" fill="none" stroke="#171612" stroke-width="4.000" stroke-opacity="1.000" stroke-linecap="round" stroke-linejoin="round" d="M 352.141 103.828 Q 351.016 103.828 351.211 103.436 Q 351.406 103.043 351.805 102.809 Q 352.203 102.574 352.602 102.375 Q 353.000 102.176 353.500 101.912 Q 354.000 101.648 354.562 101.350 Q 355.125 101.051 355.656 100.781 Q 356.188 100.512 356.820 100.184 Q 357.453 99.855 358.148 99.521 Q 358.844 99.188 359.406 98.859 Q 359.969 98.531 360.695 98.162 Q 361.422 97.793 361.953 97.564 Q 362.484 97.336 363.086 97.066 Q 363.688 96.797 364.250 96.598 Q 364.812 96.398 365.344 96.199 Q 365.875 96.000 366.336 95.836 Q 366.797 95.672 367.195 95.537 Q 367.594 95.402 367.992 95.273 Q 368.391 95.145 369.023 95.010 Q 369.656 94.875 370.781 94.875 "></path>
    <path id="STROKE_192B43D9-CAD6-46C9-8FA5-EFB20BD4A932" opacity="1.000" fill="none" stroke="#171612" stroke-width="4.000" stroke-opacity="1.000" stroke-linecap="round" stroke-linejoin="round" d="M 347.094 128.051 Q 347.156 127.184 347.625 126.791 Q 348.094 126.398 348.453 126.100 Q 348.812 125.801 349.211 125.467 Q 349.609 125.133 350.109 124.734 Q 350.609 124.336 351.172 123.902 Q 351.734 123.469 352.398 122.941 Q 353.062 122.414 353.695 121.916 Q 354.328 121.418 354.922 120.984 Q 355.516 120.551 356.250 120.053 Q 356.984 119.555 357.547 119.227 Q 358.109 118.898 358.672 118.600 Q 359.234 118.301 360.234 117.832 "></path>
    <path id="STROKE_0EDF278D-AD5C-4DB3-8154-F402AE1F0798" opacity="1.000" fill="none" stroke="#171612" stroke-width="4.000" stroke-opacity="1.000" stroke-linecap="round" stroke-linejoin="round" d="M 382.656 107.754 Q 382.188 108.410 382.188 108.873 Q 382.188 109.336 382.453 109.670 Q 382.719 110.004 383.219 110.438 Q 383.719 110.871 384.320 111.369 Q 384.922 111.867 385.281 112.166 Q 385.641 112.465 385.977 112.793 Q 386.312 113.121 386.609 113.455 Q 386.906 113.789 387.234 114.217 Q 387.562 114.645 387.828 115.043 Q 388.094 115.441 388.328 115.840 Q 388.562 116.238 388.797 116.707 Q 389.031 117.176 389.266 117.639 Q 389.500 118.102 389.664 118.529 Q 389.828 118.957 389.992 119.355 Q 390.156 119.754 390.352 120.352 Q 390.547 120.949 390.586 121.582 Q 390.625 122.215 390.625 122.941 Q 390.625 123.668 390.359 124.266 Q 390.094 124.863 389.500 125.402 "></path>
    <path id="STROKE_F699A784-48D9-4495-B231-F0AFC0FCE337" opacity="1.000" fill="none" stroke="#171612" stroke-width="4.000" stroke-opacity="1.000" stroke-linecap="round" stroke-linejoin="round" d="M 380.406 129.773 Q 379.281 129.773 378.750 129.744 Q 378.219 129.715 377.852 129.445 Q 377.484 129.176 377.281 128.713 Q 377.078 128.250 377.078 127.518 Q 377.078 126.785 377.250 126.322 Q 377.422 125.859 377.781 125.262 Q 378.141 124.664 378.578 124.037 Q 379.016 123.410 379.508 122.713 Q 380.000 122.016 380.602 121.254 Q 381.203 120.492 381.898 119.561 Q 382.594 118.629 383.258 117.832 Q 383.922 117.035 384.555 116.338 Q 385.188 115.641 385.977 114.744 Q 386.766 113.848 387.398 113.186 Q 388.031 112.523 388.766 111.762 Q 389.500 111.000 390.227 110.268 Q 390.953 109.535 391.617 108.938 Q 392.281 108.340 392.945 107.812 Q 393.609 107.285 394.273 106.787 Q 394.938 106.289 396.000 105.422 "></path>
    <path id="STROKE_B6D7564A-4D08-4B99-8507-1001435F957E" opacity="1.000" fill="none" stroke="#171612" stroke-width="4.000" stroke-opacity="1.000" stroke-linecap="round" stroke-linejoin="round" d="M 412.719 107.883 Q 411.859 108.480 411.625 109.242 Q 411.391 110.004 411.320 110.467 Q 411.250 110.930 411.156 111.527 Q 411.062 112.125 411.023 112.758 Q 410.984 113.391 410.922 114.117 Q 410.859 114.844 410.789 115.711 Q 410.719 116.578 410.656 117.504 Q 410.594 118.430 410.523 119.291 Q 410.453 120.152 410.422 121.049 Q 410.391 121.945 410.328 122.777 Q 410.266 123.609 410.195 124.506 Q 410.125 125.402 410.023 126.193 Q 409.922 126.984 409.859 127.781 Q 409.797 128.578 409.727 129.211 Q 409.656 129.844 409.523 130.641 Q 409.391 131.438 409.297 131.965 Q 409.203 132.492 409.070 132.961 Q 408.938 133.430 408.805 133.828 Q 408.672 134.227 408.336 134.789 Q 408.000 135.352 407.570 135.516 Q 407.141 135.680 406.945 135.018 Q 406.750 134.355 406.680 133.793 Q 406.609 133.230 406.578 132.363 Q 406.547 131.496 406.516 130.670 Q 406.484 129.844 406.484 128.912 Q 406.484 127.980 406.484 126.955 Q 406.484 125.930 406.484 125.068 Q 406.484 124.207 406.484 123.275 Q 406.484 122.344 406.484 121.348 Q 406.484 120.352 406.547 119.455 Q 406.609 118.559 406.742 117.568 Q 406.875 116.578 407.008 115.711 Q 407.141 114.844 407.305 113.947 Q 407.469 113.051 407.672 112.289 Q 407.875 111.527 408.141 110.701 Q 408.406 109.875 408.641 109.107 Q 408.875 108.340 409.172 107.678 Q 409.469 107.016 409.797 106.318 Q 410.125 105.621 410.492 105.023 Q 410.859 104.426 411.258 103.863 Q 411.656 103.301 412.086 102.773 Q 412.516 102.246 412.914 101.812 Q 413.312 101.379 413.812 100.980 Q 414.312 100.582 414.742 100.283 Q 415.172 99.984 415.633 99.785 Q 416.094 99.586 416.859 99.422 Q 417.625 99.258 418.352 99.258 Q 419.078 99.258 419.648 99.486 Q 420.219 99.715 420.617 100.283 Q 421.016 100.852 421.211 101.613 Q 421.406 102.375 421.438 102.873 Q 421.469 103.371 421.469 103.869 Q 421.469 104.367 421.469 104.865 Q 421.469 105.363 421.375 106.025 Q 421.281 106.688 421.047 107.221 Q 420.812 107.754 420.516 108.381 Q 420.219 109.008 419.820 109.670 Q 419.422 110.332 419.055 110.900 Q 418.688 111.469 418.258 112.031 Q 417.828 112.594 417.297 113.291 Q 416.766 113.988 416.430 114.451 Q 416.094 114.914 415.633 115.477 Q 415.172 116.039 414.805 116.508 Q 414.438 116.977 414.078 117.369 Q 413.719 117.762 412.844 118.758 "></path>
    <path id="STROKE_9304F675-1609-46E9-A7A1-79E6EB9A43BB" opacity="1.000" fill="none" stroke="#171612" stroke-width="4.000" stroke-opacity="1.000" stroke-linecap="round" stroke-linejoin="round" d="M 446.094 81.012 Q 445.828 80.215 445.359 80.244 Q 444.891 80.273 444.461 80.941 Q 444.031 81.609 443.836 82.037 Q 443.641 82.465 443.406 83.033 Q 443.172 83.602 442.906 84.293 Q 442.641 84.984 442.375 85.717 Q 442.109 86.449 441.844 87.182 Q 441.578 87.914 441.250 88.775 Q 440.922 89.637 440.656 90.533 Q 440.391 91.430 440.055 92.355 Q 439.719 93.281 439.391 94.242 Q 439.062 95.203 438.797 96.100 Q 438.531 96.996 438.227 97.893 Q 437.922 98.789 437.625 99.721 Q 437.328 100.652 437.102 101.514 Q 436.875 102.375 436.609 103.301 Q 436.344 104.227 436.078 105.023 Q 435.812 105.820 435.609 106.617 Q 435.406 107.414 435.273 108.047 Q 435.141 108.680 435.008 109.377 Q 434.875 110.074 434.773 110.672 Q 434.672 111.270 434.641 111.768 Q 434.609 112.266 434.609 112.758 Q 434.609 113.250 434.609 114.018 Q 434.609 114.785 434.875 115.248 Q 435.141 115.711 436.266 116.039 "></path>
    <path id="STROKE_2C483097-CBEE-48FC-ABF5-C6FE3FA4939D" opacity="1.000" fill="none" stroke="#171612" stroke-width="4.000" stroke-opacity="1.000" stroke-linecap="round" stroke-linejoin="round" d="M 449.672 103.102 Q 449.344 104.297 449.109 104.695 Q 448.875 105.094 448.641 105.492 Q 448.406 105.891 448.141 106.424 Q 447.875 106.957 447.648 107.484 Q 447.422 108.012 447.188 108.574 Q 446.953 109.137 446.820 109.670 Q 446.688 110.203 446.555 110.736 Q 446.422 111.270 446.359 111.697 Q 446.297 112.125 446.258 112.559 Q 446.219 112.992 446.219 113.689 Q 446.219 114.387 446.422 114.914 Q 446.625 115.441 447.055 115.740 Q 447.484 116.039 448.047 116.109 Q 448.609 116.180 449.273 116.010 Q 449.938 115.840 450.305 115.541 Q 450.672 115.242 451.000 114.879 Q 451.328 114.516 451.664 114.117 Q 452.000 113.719 452.328 113.186 Q 452.656 112.652 452.992 112.090 Q 453.328 111.527 453.656 110.830 Q 453.984 110.133 454.250 109.635 Q 454.516 109.137 454.812 108.410 Q 455.109 107.684 455.344 107.150 Q 455.578 106.617 455.781 105.990 Q 455.984 105.363 456.148 104.795 Q 456.312 104.227 456.445 103.664 Q 456.578 103.102 456.641 102.340 Q 456.703 101.578 456.703 101.115 Q 456.703 100.652 456.406 100.383 Q 456.109 100.113 455.648 100.113 Q 455.188 100.113 454.656 100.383 Q 454.125 100.652 453.656 101.115 Q 453.188 101.578 452.789 102.141 Q 452.391 102.703 451.922 103.770 "></path>
    <path id="STROKE_329B9DF8-F5C9-4344-907A-23DFE83434AF" opacity="1.000" fill="none" stroke="#171612" stroke-width="4.000" stroke-opacity="1.000" stroke-linecap="round" stroke-linejoin="round" d="M 469.312 99.914 Q 468.312 100.383 467.984 100.916 Q 467.656 101.449 467.523 102.047 Q 467.391 102.645 467.359 103.307 Q 467.328 103.969 467.328 104.795 Q 467.328 105.621 467.391 106.090 Q 467.453 106.559 467.555 107.121 Q 467.656 107.684 467.758 108.211 Q 467.859 108.738 467.953 109.336 Q 468.047 109.934 468.117 110.467 Q 468.188 111.000 468.250 111.498 Q 468.312 111.996 468.383 112.658 Q 468.453 113.320 468.555 113.754 Q 468.656 114.188 468.883 113.854 Q 469.109 113.520 469.312 112.957 Q 469.516 112.395 469.750 111.762 Q 469.984 111.129 470.312 110.432 Q 470.641 109.734 470.836 109.336 Q 471.031 108.938 471.266 108.510 Q 471.500 108.082 471.734 107.684 Q 471.969 107.285 472.266 106.852 Q 472.562 106.418 472.859 105.955 Q 473.156 105.492 473.523 104.959 Q 473.891 104.426 474.688 103.371 "></path>
    <path id="STROKE_9491B27B-AA93-4A43-A158-F9F78F83E772" opacity="1.000" fill="none" stroke="#171612" stroke-width="4.000" stroke-opacity="1.000" stroke-linecap="round" stroke-linejoin="round" d="M 524.922 75.234 Q 523.719 76.160 523.320 76.529 Q 522.922 76.898 522.594 77.297 Q 522.266 77.695 521.898 78.223 Q 521.531 78.750 521.164 79.348 Q 520.797 79.945 520.500 80.578 Q 520.203 81.211 519.836 81.973 Q 519.469 82.734 519.172 83.531 Q 518.875 84.328 518.609 85.090 Q 518.344 85.852 518.109 86.748 Q 517.875 87.645 517.648 88.471 Q 517.422 89.297 517.219 90.129 Q 517.016 90.961 516.852 91.758 Q 516.688 92.555 516.453 93.451 Q 516.219 94.348 516.023 95.244 Q 515.828 96.141 515.594 97.066 Q 515.359 97.992 515.094 98.953 Q 514.828 99.914 514.594 100.781 Q 514.359 101.648 514.133 102.475 Q 513.906 103.301 513.672 104.098 Q 513.438 104.895 513.273 105.492 Q 513.109 106.090 512.875 106.852 Q 512.641 107.613 512.445 108.275 Q 512.250 108.938 512.047 109.734 Q 511.844 110.531 511.711 111.100 Q 511.578 111.668 511.445 112.430 Q 511.312 113.191 511.109 114.117 "></path>
    <path id="STROKE_6AF6B70F-F23E-4770-B78D-4A8CD5CD126D" opacity="1.000" fill="none" stroke="#171612" stroke-width="4.000" stroke-opacity="1.000" stroke-linecap="round" stroke-linejoin="round" d="M 514.031 104.496 Q 514.359 103.301 514.398 102.803 Q 514.438 102.305 514.469 101.877 Q 514.500 101.449 514.633 100.881 Q 514.766 100.312 515.000 99.949 Q 515.234 99.586 515.797 99.387 Q 516.359 99.188 516.953 99.188 Q 517.547 99.188 517.914 99.451 Q 518.281 99.715 518.578 100.049 Q 518.875 100.383 519.141 100.746 Q 519.406 101.109 519.672 101.479 Q 519.938 101.848 520.234 102.211 Q 520.531 102.574 520.930 102.908 Q 521.328 103.242 522.531 103.570 "></path>
    <path id="STROKE_BD21B000-0F70-494A-B96B-F4F1E9754FC6" opacity="1.000" fill="none" stroke="#171612" stroke-width="4.000" stroke-opacity="1.000" stroke-linecap="round" stroke-linejoin="round" d="M 540.703 97.137 Q 539.844 97.266 539.445 97.500 Q 539.047 97.734 538.719 97.998 Q 538.391 98.262 538.086 98.625 Q 537.781 98.988 537.555 99.322 Q 537.328 99.656 537.125 100.020 Q 536.922 100.383 536.656 101.115 Q 536.391 101.848 536.195 102.609 Q 536.000 103.371 535.930 104.133 Q 535.859 104.895 535.859 105.527 Q 535.859 106.160 535.859 106.758 Q 535.859 107.355 535.859 107.818 Q 535.859 108.281 535.859 108.744 Q 535.859 109.207 535.961 108.809 Q 536.062 108.410 536.492 107.713 Q 536.922 107.016 537.391 106.289 "></path>
    <path id="STROKE_5E1E3E4E-96DB-4AB5-95A2-F9FCAFE42C9A" opacity="1.000" fill="none" stroke="#171612" stroke-width="4.000" stroke-opacity="1.000" stroke-linecap="round" stroke-linejoin="round" d="M 544.891 86.250 Q 544.891 85.324 544.422 85.289 Q 543.953 85.254 543.492 85.418 Q 543.031 85.582 543.000 86.016 Q 542.969 86.449 542.969 87.445 "></path>
    <path id="STROKE_19745D2A-5E33-4B83-BB34-804089C52FC5" opacity="1.000" fill="none" stroke="#171612" stroke-width="4.000" stroke-opacity="1.000" stroke-linecap="round" stroke-linejoin="round" d="M 558.562 99.785 Q 557.422 100.383 556.992 100.816 Q 556.562 101.250 556.234 101.678 Q 555.906 102.105 555.539 102.674 Q 555.172 103.242 554.906 103.734 Q 554.641 104.227 554.406 104.695 Q 554.172 105.164 554.039 105.592 Q 553.906 106.020 553.773 106.418 Q 553.641 106.816 553.578 107.479 Q 553.516 108.141 553.516 108.709 Q 553.516 109.277 553.945 109.676 Q 554.375 110.074 555.039 110.074 Q 555.703 110.074 556.297 109.605 Q 556.891 109.137 557.422 108.539 Q 557.953 107.941 558.219 107.514 Q 558.484 107.086 558.789 106.652 Q 559.094 106.219 559.320 105.756 Q 559.547 105.293 559.812 104.830 Q 560.078 104.367 560.281 103.969 Q 560.484 103.570 560.711 103.072 Q 560.938 102.574 561.109 102.111 Q 561.281 101.648 561.477 101.180 Q 561.672 100.711 561.969 99.850 Q 562.266 98.988 562.438 98.326 Q 562.609 97.664 562.703 97.131 Q 562.797 96.598 562.875 95.742 "></path>
    <path id="STROKE_590874EC-F015-4D11-B0AF-A65B382EAE6F" opacity="1.000" fill="none" stroke="#171612" stroke-width="4.000" stroke-opacity="1.000" stroke-linecap="round" stroke-linejoin="round" d="M 579.453 97.793 Q 578.594 98.391 578.391 98.789 Q 578.188 99.188 578.094 99.750 Q 578.000 100.312 577.898 101.010 Q 577.797 101.707 577.695 102.439 Q 577.594 103.172 577.531 103.934 Q 577.469 104.695 577.438 105.293 Q 577.406 105.891 577.406 106.424 Q 577.406 106.957 577.969 107.021 Q 578.531 107.086 578.961 106.652 Q 579.391 106.219 579.984 105.656 Q 580.578 105.094 580.883 104.830 Q 581.188 104.566 581.516 104.297 Q 581.844 104.027 582.211 103.729 Q 582.578 103.430 582.938 103.201 Q 583.297 102.973 583.734 102.674 Q 584.172 102.375 584.570 102.141 Q 584.969 101.906 585.766 101.508 Q 586.562 101.109 586.992 100.910 Q 587.422 100.711 588.117 100.482 Q 588.812 100.254 589.406 100.119 Q 590.000 99.984 590.570 99.984 Q 591.141 99.984 591.305 100.447 Q 591.469 100.910 591.469 101.607 Q 591.469 102.305 591.266 103.166 Q 591.062 104.027 590.898 104.496 Q 590.734 104.965 590.539 105.527 Q 590.344 106.090 590.172 106.588 Q 590.000 107.086 589.805 107.648 Q 589.609 108.211 589.445 108.709 Q 589.281 109.207 589.148 109.740 Q 589.016 110.273 588.812 111.926 "></path>
    <path id="STROKE_C2A01544-6DCF-4443-B06F-1C6EC948F473" opacity="1.000" fill="none" stroke="#171612" stroke-width="4.000" stroke-opacity="1.000" stroke-linecap="round" stroke-linejoin="round" d="M 495.037 101.379 Q 494.252 100.799 493.886 100.467 Q 493.519 100.135 493.018 99.990 Q 492.517 99.845 492.029 99.897 Q 491.541 99.948 491.094 100.175 Q 490.648 100.402 490.239 100.692 Q 489.831 100.982 489.509 101.339 Q 489.187 101.697 488.874 102.148 Q 488.562 102.600 488.316 103.102 Q 488.070 103.605 487.936 104.068 Q 487.802 104.531 487.707 105.048 Q 487.611 105.565 487.573 106.042 Q 487.534 106.519 487.534 107.033 Q 487.534 107.547 487.589 108.038 Q 487.643 108.529 487.802 109.058 Q 487.962 109.586 488.125 110.024 Q 488.287 110.461 488.533 110.912 Q 488.778 111.363 489.104 111.707 Q 489.429 112.051 489.901 112.289 Q 490.373 112.528 490.849 112.542 Q 491.324 112.556 491.662 112.224 Q 492.000 111.892 492.313 111.468 Q 492.626 111.045 492.884 110.648 Q 493.142 110.250 493.426 109.827 Q 493.710 109.404 494.007 108.967 Q 494.303 108.529 494.575 108.118 Q 494.846 107.706 495.091 107.283 Q 495.337 106.860 495.567 106.437 Q 495.796 106.013 496.026 105.471 Q 496.256 104.929 496.460 104.293 Q 496.664 103.657 496.865 103.009 Q 497.066 102.361 497.203 101.896 Q 497.340 101.431 497.178 101.868 Q 497.015 102.305 496.948 102.862 Q 496.881 103.418 496.840 104.054 Q 496.798 104.690 496.757 105.207 Q 496.715 105.724 496.690 106.240 Q 496.664 106.757 496.648 107.260 Q 496.632 107.762 496.632 108.356 Q 496.632 108.950 496.648 109.467 Q 496.664 109.984 496.744 110.461 Q 496.824 110.938 496.973 111.429 Q 497.123 111.920 497.420 112.408 Q 497.717 112.897 498.316 113.692 "></path>
  </g>
</svg>